version="1.12.*"
tags={
	"Balance"
}
replace_path="common/abilities"
replace_path="common/ai_strategy"
replace_path="common/ai_strategy_plans"
replace_path="common/countries"
replace_path="common/country_tags"
replace_path="common/characters"
replace_path="common/game_rules"
replace_path="common/difficulty_settings"
replace_path="common/bookmarks"
replace_path="common/national_focus"
replace_path="history/countries"
replace_path="history/units/"
replace_path="common/units/names_divisions"
replace_path="common/units/names_ships"
replace_path="events"
name="elwolfmod"
supported_version="1.12.*"
remote_file_id="2189489529"