
state={
	id=133
	name="STATE_133" # Lanark
	manpower = 2257723
	
	state_category = city
	
	resources={
		steel=21 # was: 36
	}

	history={
		add_core_of = ENG
		owner = ENG
		victory_points = {
			3273 15
		}
		victory_points = {
			11218 1 #Dumfries
		}
		buildings = {
			infrastructure = 4 #was: 7
			industrial_complex = 1
			dockyard = 4
			anti_air_building = 2
			air_base = 3
			6395 = {
				naval_base = 2
			}

		}
		add_core_of = ENG
		1939.1.1 = {
			buildings = {
				dockyard = 5
				industrial_complex = 2
			}
		}
	}

	provinces={
		3273 6320 6350 6385 6395 9237 9350 11218 
	}

	local_supplies=0.0 
}
