state={
	id=179
	name="STATE_179"

	history={
        owner = WST












		buildings = {
			infrastructure = 3 #was: 5
			industrial_complex = 3
			3790 = {
				naval_base = 2

			}
		}
		add_core_of = POR
		add_extra_state_shared_building_slots = 1 

	}

	provinces={
		970 980 3790 3866 6880 6884 6933 9765 9819 
	}
	manpower=777895
	buildings_max_level_factor=1.000
	state_category=rural

	local_supplies=0.0 
}
