
state={
	id=272
	name="STATE_272"
	manpower = 1638000
	resources={
		steel=3 # was: 4
	}
	
	state_category = pastoral

	history={
		owner = FRA
		add_core_of = SWE
		victory_points = {
			4948 5 
		}
		buildings = {
			infrastructure = 2
			air_base = 4
			4948 = {
				naval_base = 3
			}
		}
	}

	provinces={
		2100 4948 7972 8015 12710 12834 
	}

	local_supplies=1.0 
}
