
state={
	id=354
	name="STATE_354"
    manpower = 1
	
	state_category = town

	history={
        owner = WST
		









		buildings = {
			infrastructure = 2
			9932 = {
				naval_base = 2
			}
		}
		add_core_of = TUR
	}

	provinces={
		789 3714 3979 6976 6991 7454 9886 9932 10403 10472 11753 11853
	}

	local_supplies=0.0 
}
