
state = {
	id = 39
	name = "STATE_39" # (South Tyrol) Alto Adige -> #TODO_Manu: Should change name to Südtirol when under Austrian/German control
	manpower = 298290 # was 641650 before Trentino split
	
	state_category = town
	
	resources = {
		aluminium = 14 # was: 22
	}

	history = {
		victory_points = { #Bolzano
			11598 1
		}
		owner = ITA
		buildings = {
			infrastructure = 2 # was 3 before split
			industrial_complex = 1 #Bolzano's industrial zone started in 1934-35 (Steel meels, Lancia...)
		}
		add_core_of = ITA
		add_core_of = ITA
		add_claim_by = AUS
	}

	provinces = {
		656 6675 9630 11598 11615
	}

	local_supplies = 0.0 
}
