
state={
	id=424
	name="STATE_424" # Madras
	manpower = 15791700
	state_category = rural
	

history={ 1936.1.1.13 = { owner = WST add_core_of = WST }
		owner = RAJ
		buildings = {
			infrastructure = 2
			industrial_complex = 1
		}

	}

	provinces={
		1228 1344 1430 4321 4365 4414 7297 7310 7340 10152 10296 10756 10897 12180 12779 
	}

	local_supplies=0.0 
}
