
state={
	id=479
	name="STATE_479"
	manpower = 1032988
	
	state_category = town

	resources={
		oil=9
		#steel=2 moved to Guerrero
	}
	
history={ 1936.1.1.13 = { owner = WST add_core_of = WST }
		owner = MEX
		buildings = {
			infrastructure = 2
			industrial_complex = 1
		}
		add_core_of = MEX
		victory_points = {
			4956 10
		}
		victory_points = {
			5015 5
		}

	}

	provinces={
		1952 2083 4956 5015 5021 12721 13088 
	}
	

	local_supplies=0.0 
}
