state={
	id=492
	name="STATE_492"
	resources={
		tungsten=2 # was: 2.000
	}
	
	state_category = rural

	history={
        owner = WST
		buildings = {
			infrastructure = 2
			industrial_complex = 1
			air_base = 1

		}
		add_core_of = PRU




	}

	provinces={
		2182 2210 2225 5202 12953 13086 13175 
	}
	manpower=1601278
	buildings_max_level_factor=1.000

	local_supplies=0.0 
}
