
state={
	id=511
	name="STATE_511" # Mendoza
    manpower = 1
	
	state_category = rural

	history={
        owner = WST
		buildings = {
			infrastructure = 2
			industrial_complex = 1
			air_base = 1
		}
		add_core_of = ARG




	}

	provinces={
		2158 2179 2215 5152 5184 5219 7550 8215 10964 10992 11021 11022 12942 12970 
	}

	local_supplies=0.0 
}
