
state={
	id=553
	name="STATE_553"
	manpower = 1104000
	
	state_category = town

	history={
		owner = FRA
		victory_points = {
			792 5 
		}
		buildings = {
			infrastructure = 2
			industrial_complex = 1
			air_base = 5
			792 = {
				naval_base = 3
			}
		}

		add_core_of = SWE
	}

	provinces={
		792 1108 11919 
	}

	local_supplies=0.0 
}
