
state={
	id=614
	name="STATE_614" # Hebei
	manpower = 18434900
	
	state_category = town

history={ 1936.1.1.13 = { owner = WST add_core_of = WST }
		owner = CHI
		add_core_of = CHI
		add_core_of = CHI
		buildings = {
			infrastructure = 2
		}

		1938.10.25 = {
			controller = JAP
		}
	}

	provinces={
		1169 1188 4032 4058 4093 4190 4208 7000 7092 7109 10003 10022 10053 10119 11944 11980 11996 12062 
	}

	local_supplies=0.0 
}
