state=
{
	id=626
	name="STATE_626"
	manpower = 83041
	
	state_category = rural
	
	history=
{ 1936.1.1.13 = { owner = WST add_core_of = WST }
		owner = PHI 
		buildings = {
			infrastructure = 2
			4429 = {
				naval_base = 1
			}
		}
		add_core_of = PHI 
	}
	provinces={
		4429 7419 10145 
	}

	local_supplies=0.0 
}
