state=
{
	id=645
	name="STATE_645"
	manpower=1018
	state_category = small_island
	history=
{ 1936.1.1.13 = { owner = WST add_core_of = WST }
		owner = JAP
		add_core_of = JAP
		buildings = {
			infrastructure = 2
			air_base = 1
			13025 = {
				naval_base = 1

			}
		}
		victory_points = {
			13025 5
		 }

	}
	provinces={
		13025
	}

	local_supplies=0.0 
}
