state=
{
	id=650
	name="STATE_650"
	manpower=20
	state_category = tiny_island
	
	history=
{ 1936.1.1.13 = { owner = WST add_core_of = WST }
		owner = USA
		victory_points = {
			13067 1 
		}
		buildings = {
			infrastructure = 1
			13067 = {
				naval_base = 1
			}
		}
	}
	provinces=
	{
13067 	}

	local_supplies=0.0 
}
