
state = {
	id = 655
	name = "STATE_655"
	manpower = 94759
	
	state_category = pastoral
	history = {
		owner = SOV
		add_core_of = SOV
		add_core_of = SOV
		add_claim_by = JAP
		buildings = {
			infrastructure = 2
			air_base = 1
		}
	}

	provinces = {
		855 1742 1755 
	}

	local_supplies = 0.0 
}
