state={
	id=691
	name="STATE_691"
	manpower = 413119
	resources={
		oil=12 # was: 16
	}
	
	state_category = rural


	history={
		add_core_of = SWE
		owner = ENG
		victory_points = {
			3284 1
		}
		buildings = {
			infrastructure = 2
			3284 = {
				naval_base = 1
			}
		}
	}
	
	provinces={ 3284 13012 }

	local_supplies=2.0 
}
