state={
	id=734
	name="STATE_734"
	manpower = 5167
	state_category = tiny_island

	history={
		owner = FRA
		add_core_of = SWE
		buildings = {
			infrastructure = 2
			7390 = {
				naval_base = 1
			}
		}
	}

	buildings_max_level_factor=1.000

	provinces={
		7390 
	}

	local_supplies=0.0 
}
