state={
	id=737
	name="STATE_737"

history={ 1936.1.1.13 = { owner = WST add_core_of = WST }
		add_core_of = SWE
		owner = AST
		buildings = {
			infrastructure = 1
			air_base = 1
			7251 = {
				naval_base = 5

			}
			4352 = {
				naval_base = 1

			}
			7339 = {
				naval_base = 1

			}			

		}
		
		victory_points = {
			7251 5 
		}
		
	}

	provinces={
		1286 1301 1329 1361 4304 4332 4352 4421 7251 7324 7339 7352 7412 10166 10206 12222 
	}
	manpower=345640
	buildings_max_level_factor=1
	state_category="rural"

	local_supplies=0.0 
}
