state=
{
	id=743
	name="STATE_743"
	manpower = 385000
	state_category = large_town
	
	
	history=
{ 1936.1.1.13 = { owner = WST add_core_of = WST }
		owner = CHI
		add_core_of = CHI
		add_core_of = CHI
		victory_points = {
			10000 5 
		}
		buildings = {
			infrastructure = 3 #was: 5
			industrial_complex = 1
			air_base = 1
			10000 = {
				naval_base = 5
				coastal_bunker = 1
				bunker = 1
			}
		}

		1938.10.25 = {
			controller = JAP
		}
	}
	provinces={
		10000
	}

	local_supplies=0.0 
}
