
state={
	id=782
	name="STATE_782" # Tombouctou
	manpower = 79243
	
	state_category = wasteland
	impassable = yes

	history={
		owner = FRA
		add_core_of = SWE
		buildings = {
			infrastructure = 0
		}

	}

	provinces={
		1115 2068 10725 10868
	}

	local_supplies=0.0 
}
