state={
	id=798
	name="STATE_798"
	provinces={
		919 3807 3862 3964 11826 11844 
	}
    manpower = 1
	
	state_category = rural

	history= {
        owner = WST






		buildings = {
			infrastructure = 2
		}
		add_core_of = TUR
	}

	local_supplies=0.0 
}
