
state={
	id=806
	name="STATE_806"

	history={
		owner = FRA
		victory_points = {
			9710 3 
		}
		add_core_of = FRA
add_core_of = VIC
		buildings = {
			infrastructure = 3 #was: 6

		}
		add_core_of = FRA
add_core_of = VIC

	}

	provinces={
		743 9710 11697 
	}
	manpower=280723
	buildings_max_level_factor=1.000
	state_category=town

	local_supplies=0.0 
}
