
state = {
	id = 878
	name = "STATE_878" # Khatangsky
	manpower = 15974
	
	state_category = pastoral

	history = {
		owner = SOV
		buildings = {
			infrastructure = 1
		}
		add_core_of = SOV
		add_core_of = SOV
	}

	provinces = {
		2900 4812 9224 11122 12687 13065
	}

	local_supplies = 0.0 
}
