state={
	id=900
	name="STATE_900"
	manpower = 1163674
	state_category = pastoral 

	history={
		owner = ENG
		add_core_of = SWE
		buildings = {
			infrastructure = 2
		}
	}

	provinces={
		1992 4889 7978 8034 10831 
	}
	
	buildings_max_level_factor=1.000
	local_supplies=0.000
}
