state={
	id=904
	name="STATE_904"
	manpower = 678400
	state_category = pastoral

	history={
		owner = ENG
		buildings = {
			infrastructure = 1

		}
		add_core_of = SWE
	}

	provinces={
		5160 10860 11145 
	}

	buildings_max_level_factor=1.000
	local_supplies=0.000
}
