﻿division_template = {
	name = "Divizia de Infanterie"			# Infantry Division
	# Note: also Fortress divisions

	division_names_group = ROM_INF_01

	regiments = {
		infantry = { x = 0 y = 0 }
		infantry = { x = 0 y = 1 }
		infantry = { x = 0 y = 2 }
		infantry = { x = 1 y = 0 }
		infantry = { x = 1 y = 1 }
		infantry = { x = 1 y = 2 }
		infantry = { x = 2 y = 0 }
		infantry = { x = 2 y = 1 }
		infantry = { x = 2 y = 2 }
	}
	support = {
		artillery = { x = 0 y = 0 }  # 2x 100mm howitzer bns, on average
		engineer = { x = 0 y = 1 }   
	}
}
division_template = {
	name = "Brigada de Munte"				# Mountain Brigade

	division_names_group = ROM_MTN_01

	regiments = {
		mountaineers = { x = 0 y = 0 }
		mountaineers = { x = 0 y = 1 }
		mountaineers = { x = 0 y = 2 }
		mountaineers = { x = 1 y = 0 }
		mountaineers = { x = 1 y = 1 }
		mountaineers = { x = 1 y = 2 }
	}
	support = {
		engineer = { x = 0 y = 0 }   
	}
}
division_template = {
	name = "Brigada de Cavalerie" 				# Cavalry Brigade
	# Note: regiments within the brigade were battalion-sized units

	division_names_group = ROM_CAV_01

	regiments = {
		cavalry = { x = 0 y = 0 }
		cavalry = { x = 0 y = 1 }
		cavalry = { x = 0 y = 2 }
	}
}
division_template = {
	name = "Regimentul de Blindate" 				# Armor Regiment
	# Note: 2nd regiment created and merged with motorized inf to create Armor Division in 1940
	division_names_group = ROM_ARM_01
	regiments = {
		light_armor = { x = 0 y = 0 }
		light_armor = { x = 0 y = 1 }
		motorized = { x = 1 y = 0 }           # added motorized not to make it a death trap
		motorized = { x = 1 y = 1 }
	}
}


division_template = {
	name = "MP"

	regiments = {
		cavalry = { x = 0 y = 0 }
		cavalry = { x = 0 y = 1 }
		cavalry = { x = 0 y = 2 }
		cavalry = { x = 0 y = 3 }
		cavalry = { x = 0 y = 4 }

		cavalry = { x = 1 y = 0 }
		cavalry = { x = 1 y = 1 }
		cavalry = { x = 1 y = 2 }
		cavalry = { x = 1 y = 3 }
		cavalry = { x = 1 y = 4 }

		cavalry = { x = 2 y = 0 }
		cavalry = { x = 2 y = 1 }
		cavalry = { x = 2 y = 2 }
		cavalry = { x = 2 y = 3 }
		cavalry = { x = 2 y = 4 }

		cavalry = { x = 3 y = 0 }
		cavalry = { x = 3 y = 1 }
		cavalry = { x = 3 y = 2 }
		cavalry = { x = 3 y = 3 }
		cavalry = { x = 3 y = 4 }

		cavalry = { x = 4 y = 0 }
		cavalry = { x = 4 y = 1 }
		cavalry = { x = 4 y = 2 }
		cavalry = { x = 4 y = 3 }
		cavalry = { x = 4 y = 4 }

	}
	support = {

	}
}

division_template = {
	name = "50W"

	regiments = {
		infantry = { x = 0 y = 0 }
		infantry = { x = 0 y = 1 }
		infantry = { x = 0 y = 2 }
		infantry = { x = 0 y = 3 }
		infantry = { x = 0 y = 4 }

		infantry = { x = 1 y = 0 }
		infantry = { x = 1 y = 1 }
		infantry = { x = 1 y = 2 }
		infantry = { x = 1 y = 3 }
		infantry = { x = 1 y = 4 }

		infantry = { x = 2 y = 0 }
		infantry = { x = 2 y = 1 }
		infantry = { x = 2 y = 2 }
		infantry = { x = 2 y = 3 }
		infantry = { x = 2 y = 4 }

		infantry = { x = 3 y = 0 }
		infantry = { x = 3 y = 1 }
		infantry = { x = 3 y = 2 }
		infantry = { x = 3 y = 3 }
		infantry = { x = 3 y = 4 }

		infantry = { x = 4 y = 0 }
		infantry = { x = 4 y = 1 }
		infantry = { x = 4 y = 2 }
		infantry = { x = 4 y = 3 }
		infantry = { x = 4 y = 4 }

	}
	support = {

	}
}

##### OOB #####
units = {
	division= {
		location = 9617
		division_template = "50W"
		start_experience_factor = 0.3
		start_equipment_factor = 0.01
	}
}

### Starting Production ###
instant_effect = {
	add_equipment_production = {
		equipment = {
			type = infantry_equipment_1
			creator = "ROM"
		}
		requested_factories = 2
		progress = 0.87
		efficiency = 100
	}
	add_equipment_production = {
		equipment = {
			type = support_equipment_1
			creator = "ROM"
		}
		requested_factories = 1
		progress = 0.19
		efficiency = 100
	}
	add_equipment_production = {
		equipment = {
			type = artillery_equipment_1
			creator = "ROM"
		}
		requested_factories = 1
		progress = 0.24
		efficiency = 100
	}

}